TidyTemplate
…
tt %>% 
  map(glimpse)

## Rows: 4,970
## Columns: 7
## $ medal     <chr> "Gold", "Silver", "Bronze", "Gold", "Silver", "Bronze", "Go
## $ beer_name <chr> "Volksbier Vienna", "Oktoberfest", "Amber Lager", "Lager at
## $ brewery   <chr> "Wibby Brewing", "Founders Brewing Co.", "Skipping Rock Bee
## $ city      <chr> "Longmont", "Grand Rapids", "Staunton", "Concord", "Santa R
## $ state     <chr> "CO", "MI", "VA", "CA", "CA", "IL", "CA", "TX", "OR", "MO",
## $ category  <chr> "American Amber Lager", "American Amber Lager", "American A
## $ year      <dbl> 2020, 2020, 2020, 2020, 2020, 2020, 2020, 2020, 2020, 2020,

## $beer_awards
## # A tibble: 4,970 x 7
##    medal  beer_name               brewery      city    state category       year
##    <chr>  <chr>                   <chr>        <chr>   <chr> <chr>         <dbl>
##  1 Gold   Volksbier Vienna        Wibby Brewi Longmo CO    American Amb  2020
##  2 Silver Oktoberfest             Founders Br Grand  MI    American Amb  2020
##  3 Bronze Amber Lager             Skipping Ro Staunt VA    American Amb  2020
##  4 Gold   Lager at World's End    Epidemic Al Concord CA    American Lag  2020
##  5 Silver Seismic Tremor          Seismic Bre Santa  CA    American Lag  2020
##  6 Bronze Lite Thinking           Pollyanna B Lemont  IL    American Lag  2020
##  7 Gold   Beachscape              Ventura Coa Ventura CA    American Pil  2020
##  8 Silver Imagine a World with B Freetail Br San An TX    American Pil  2020
##  9 Bronze Pilsner                 Old Town Br Portla OR    American Pil  2020
## 10 Gold   Tank 7                  Boulevard B Kansas MO    American-Bel  2020
## #  with 4,960 more rows
…
